ISO-10303-21;
HEADER;
/* Generated by software containing ST-Developer
 * from STEP Tools, Inc. (www.steptools.com) 
 */

FILE_DESCRIPTION(
/* description */ ('Encapsulation UV light Enclosure/Chassis'),
/* implementation_level */ '2;1');

FILE_NAME(
/* name */ 
'C:\\Users\\AugustinZaininger\\OneDrive - Nexus365\\Oxford\\equipmentP
rojects\\encapsulationRobot\\encapsulationJig\\20220322_UV_light_02A_c
hassisBox_sideWall.stp',
/* time_stamp */ '2022-04-10T23:58:31+01:00',
/* author */ ('Augustin'),
/* organization */ (''),
/* preprocessor_version */ 'ST-DEVELOPER v18.1',
/* originating_system */ 'Autodesk Inventor 2022',
/* authorisation */ '');

FILE_SCHEMA (('AUTOMOTIVE_DESIGN { 1 0 10303 214 3 1 1 }'));
ENDSEC;

DATA;
#10=MECHANICAL_DESIGN_GEOMETRIC_PRESENTATION_REPRESENTATION('',(#13),#1325);
#11=SHAPE_REPRESENTATION_RELATIONSHIP('SRR','None',#1332,#12);
#12=ADVANCED_BREP_SHAPE_REPRESENTATION('',(#14),#1324);
#13=STYLED_ITEM('',(#1341),#14);
#14=MANIFOLD_SOLID_BREP('Solid1',#763);
#15=CONICAL_SURFACE('',#823,0.85,1.02974425867665);
#16=CONICAL_SURFACE('',#825,0.61475,1.02974425867665);
#17=CONICAL_SURFACE('',#828,0.85,1.02974425867665);
#18=CONICAL_SURFACE('',#830,0.61475,1.02974425867665);
#19=CONICAL_SURFACE('',#833,0.85,1.02974425867665);
#20=CONICAL_SURFACE('',#835,0.61475,1.02974425867665);
#21=CONICAL_SURFACE('',#838,0.85,1.02974425867665);
#22=CONICAL_SURFACE('',#840,0.61475,1.02974425867665);
#23=CONICAL_SURFACE('',#843,0.61475,1.02974425867665);
#24=CONICAL_SURFACE('',#847,0.61475,1.02974425867665);
#25=CONICAL_SURFACE('',#851,0.61475,1.02974425867665);
#26=CONICAL_SURFACE('',#855,0.61475,1.02974425867665);
#27=CONICAL_SURFACE('',#859,0.85,1.02974425867665);
#28=CONICAL_SURFACE('',#861,0.61475,1.02974425867665);
#29=CONICAL_SURFACE('',#864,0.61475,1.02974425867665);
#30=CYLINDRICAL_SURFACE('',#802,3.25);
#31=CYLINDRICAL_SURFACE('',#803,1.7);
#32=CYLINDRICAL_SURFACE('',#808,3.25);
#33=CYLINDRICAL_SURFACE('',#809,1.7);
#34=CYLINDRICAL_SURFACE('',#814,3.25);
#35=CYLINDRICAL_SURFACE('',#815,1.7);
#36=CYLINDRICAL_SURFACE('',#820,3.25);
#37=CYLINDRICAL_SURFACE('',#821,1.7);
#38=CYLINDRICAL_SURFACE('',#827,1.2295);
#39=CYLINDRICAL_SURFACE('',#832,1.2295);
#40=CYLINDRICAL_SURFACE('',#837,1.2295);
#41=CYLINDRICAL_SURFACE('',#842,1.2295);
#42=CYLINDRICAL_SURFACE('',#845,1.2295);
#43=CYLINDRICAL_SURFACE('',#849,1.2295);
#44=CYLINDRICAL_SURFACE('',#853,1.2295);
#45=CYLINDRICAL_SURFACE('',#857,1.2295);
#46=CYLINDRICAL_SURFACE('',#863,1.2295);
#47=CYLINDRICAL_SURFACE('',#866,1.2295);
#48=FACE_BOUND('',#159,.T.);
#49=FACE_BOUND('',#160,.T.);
#50=FACE_BOUND('',#161,.T.);
#51=FACE_BOUND('',#162,.T.);
#52=FACE_BOUND('',#163,.T.);
#53=FACE_BOUND('',#166,.T.);
#54=FACE_BOUND('',#167,.T.);
#55=FACE_BOUND('',#168,.T.);
#56=FACE_BOUND('',#169,.T.);
#57=FACE_BOUND('',#172,.T.);
#58=FACE_BOUND('',#176,.T.);
#59=FACE_BOUND('',#180,.T.);
#60=FACE_BOUND('',#184,.T.);
#61=FACE_BOUND('',#213,.T.);
#62=FACE_BOUND('',#214,.T.);
#63=FACE_BOUND('',#219,.T.);
#64=FACE_BOUND('',#220,.T.);
#65=FACE_BOUND('',#222,.T.);
#66=FACE_BOUND('',#223,.T.);
#67=FACE_BOUND('',#224,.T.);
#68=FACE_BOUND('',#225,.T.);
#69=FACE_BOUND('',#226,.T.);
#70=CIRCLE('',#787,1.7);
#71=CIRCLE('',#788,1.7);
#72=CIRCLE('',#789,1.7);
#73=CIRCLE('',#790,1.7);
#74=CIRCLE('',#791,1.7);
#75=CIRCLE('',#794,3.25);
#76=CIRCLE('',#795,3.25);
#77=CIRCLE('',#796,3.25);
#78=CIRCLE('',#797,3.25);
#79=CIRCLE('',#800,3.25);
#80=CIRCLE('',#801,1.7);
#81=CIRCLE('',#804,1.7);
#82=CIRCLE('',#806,3.25);
#83=CIRCLE('',#807,1.7);
#84=CIRCLE('',#810,1.7);
#85=CIRCLE('',#812,3.25);
#86=CIRCLE('',#813,1.7);
#87=CIRCLE('',#816,1.7);
#88=CIRCLE('',#818,3.25);
#89=CIRCLE('',#819,1.7);
#90=CIRCLE('',#822,1.7);
#91=CIRCLE('',#824,1.2295);
#92=CIRCLE('',#826,1.2295);
#93=CIRCLE('',#829,1.2295);
#94=CIRCLE('',#831,1.2295);
#95=CIRCLE('',#834,1.2295);
#96=CIRCLE('',#836,1.2295);
#97=CIRCLE('',#839,1.2295);
#98=CIRCLE('',#841,1.2295);
#99=CIRCLE('',#844,1.2295);
#100=CIRCLE('',#846,1.2295);
#101=CIRCLE('',#848,1.2295);
#102=CIRCLE('',#850,1.2295);
#103=CIRCLE('',#852,1.2295);
#104=CIRCLE('',#854,1.2295);
#105=CIRCLE('',#856,1.2295);
#106=CIRCLE('',#858,1.2295);
#107=CIRCLE('',#860,1.2295);
#108=CIRCLE('',#862,1.2295);
#109=CIRCLE('',#865,1.2295);
#110=CIRCLE('',#867,1.2295);
#111=FACE_OUTER_BOUND('',#158,.T.);
#112=FACE_OUTER_BOUND('',#164,.T.);
#113=FACE_OUTER_BOUND('',#165,.T.);
#114=FACE_OUTER_BOUND('',#170,.T.);
#115=FACE_OUTER_BOUND('',#171,.T.);
#116=FACE_OUTER_BOUND('',#173,.T.);
#117=FACE_OUTER_BOUND('',#174,.T.);
#118=FACE_OUTER_BOUND('',#175,.T.);
#119=FACE_OUTER_BOUND('',#177,.T.);
#120=FACE_OUTER_BOUND('',#178,.T.);
#121=FACE_OUTER_BOUND('',#179,.T.);
#122=FACE_OUTER_BOUND('',#181,.T.);
#123=FACE_OUTER_BOUND('',#182,.T.);
#124=FACE_OUTER_BOUND('',#183,.T.);
#125=FACE_OUTER_BOUND('',#185,.T.);
#126=FACE_OUTER_BOUND('',#186,.T.);
#127=FACE_OUTER_BOUND('',#187,.T.);
#128=FACE_OUTER_BOUND('',#188,.T.);
#129=FACE_OUTER_BOUND('',#189,.T.);
#130=FACE_OUTER_BOUND('',#190,.T.);
#131=FACE_OUTER_BOUND('',#191,.T.);
#132=FACE_OUTER_BOUND('',#192,.T.);
#133=FACE_OUTER_BOUND('',#193,.T.);
#134=FACE_OUTER_BOUND('',#194,.T.);
#135=FACE_OUTER_BOUND('',#195,.T.);
#136=FACE_OUTER_BOUND('',#196,.T.);
#137=FACE_OUTER_BOUND('',#197,.T.);
#138=FACE_OUTER_BOUND('',#198,.T.);
#139=FACE_OUTER_BOUND('',#199,.T.);
#140=FACE_OUTER_BOUND('',#200,.T.);
#141=FACE_OUTER_BOUND('',#201,.T.);
#142=FACE_OUTER_BOUND('',#202,.T.);
#143=FACE_OUTER_BOUND('',#203,.T.);
#144=FACE_OUTER_BOUND('',#204,.T.);
#145=FACE_OUTER_BOUND('',#205,.T.);
#146=FACE_OUTER_BOUND('',#206,.T.);
#147=FACE_OUTER_BOUND('',#207,.T.);
#148=FACE_OUTER_BOUND('',#208,.T.);
#149=FACE_OUTER_BOUND('',#209,.T.);
#150=FACE_OUTER_BOUND('',#210,.T.);
#151=FACE_OUTER_BOUND('',#211,.T.);
#152=FACE_OUTER_BOUND('',#212,.T.);
#153=FACE_OUTER_BOUND('',#215,.T.);
#154=FACE_OUTER_BOUND('',#216,.T.);
#155=FACE_OUTER_BOUND('',#217,.T.);
#156=FACE_OUTER_BOUND('',#218,.T.);
#157=FACE_OUTER_BOUND('',#221,.T.);
#158=EDGE_LOOP('',(#506,#507,#508,#509,#510,#511,#512,#513));
#159=EDGE_LOOP('',(#514));
#160=EDGE_LOOP('',(#515));
#161=EDGE_LOOP('',(#516));
#162=EDGE_LOOP('',(#517));
#163=EDGE_LOOP('',(#518));
#164=EDGE_LOOP('',(#519,#520,#521,#522));
#165=EDGE_LOOP('',(#523,#524,#525,#526));
#166=EDGE_LOOP('',(#527));
#167=EDGE_LOOP('',(#528));
#168=EDGE_LOOP('',(#529));
#169=EDGE_LOOP('',(#530));
#170=EDGE_LOOP('',(#531,#532,#533,#534));
#171=EDGE_LOOP('',(#535));
#172=EDGE_LOOP('',(#536));
#173=EDGE_LOOP('',(#537,#538,#539,#540));
#174=EDGE_LOOP('',(#541,#542,#543,#544));
#175=EDGE_LOOP('',(#545));
#176=EDGE_LOOP('',(#546));
#177=EDGE_LOOP('',(#547,#548,#549,#550));
#178=EDGE_LOOP('',(#551,#552,#553,#554));
#179=EDGE_LOOP('',(#555));
#180=EDGE_LOOP('',(#556));
#181=EDGE_LOOP('',(#557,#558,#559,#560));
#182=EDGE_LOOP('',(#561,#562,#563,#564));
#183=EDGE_LOOP('',(#565));
#184=EDGE_LOOP('',(#566));
#185=EDGE_LOOP('',(#567,#568,#569,#570));
#186=EDGE_LOOP('',(#571,#572,#573,#574));
#187=EDGE_LOOP('',(#575,#576,#577,#578));
#188=EDGE_LOOP('',(#579,#580,#581));
#189=EDGE_LOOP('',(#582,#583,#584,#585));
#190=EDGE_LOOP('',(#586,#587,#588,#589));
#191=EDGE_LOOP('',(#590,#591,#592));
#192=EDGE_LOOP('',(#593,#594,#595,#596));
#193=EDGE_LOOP('',(#597,#598,#599,#600));
#194=EDGE_LOOP('',(#601,#602,#603));
#195=EDGE_LOOP('',(#604,#605,#606,#607));
#196=EDGE_LOOP('',(#608,#609,#610,#611));
#197=EDGE_LOOP('',(#612,#613,#614));
#198=EDGE_LOOP('',(#615,#616,#617,#618));
#199=EDGE_LOOP('',(#619,#620,#621));
#200=EDGE_LOOP('',(#622,#623,#624,#625));
#201=EDGE_LOOP('',(#626,#627,#628));
#202=EDGE_LOOP('',(#629,#630,#631,#632));
#203=EDGE_LOOP('',(#633,#634,#635));
#204=EDGE_LOOP('',(#636,#637,#638,#639));
#205=EDGE_LOOP('',(#640,#641,#642));
#206=EDGE_LOOP('',(#643,#644,#645,#646));
#207=EDGE_LOOP('',(#647,#648,#649,#650));
#208=EDGE_LOOP('',(#651,#652,#653));
#209=EDGE_LOOP('',(#654,#655,#656,#657));
#210=EDGE_LOOP('',(#658,#659,#660));
#211=EDGE_LOOP('',(#661,#662,#663,#664));
#212=EDGE_LOOP('',(#665,#666,#667,#668));
#213=EDGE_LOOP('',(#669));
#214=EDGE_LOOP('',(#670));
#215=EDGE_LOOP('',(#671,#672,#673,#674));
#216=EDGE_LOOP('',(#675,#676,#677,#678));
#217=EDGE_LOOP('',(#679,#680,#681,#682));
#218=EDGE_LOOP('',(#683,#684,#685,#686));
#219=EDGE_LOOP('',(#687));
#220=EDGE_LOOP('',(#688));
#221=EDGE_LOOP('',(#689,#690,#691,#692,#693,#694,#695,#696));
#222=EDGE_LOOP('',(#697));
#223=EDGE_LOOP('',(#698));
#224=EDGE_LOOP('',(#699));
#225=EDGE_LOOP('',(#700));
#226=EDGE_LOOP('',(#701));
#227=LINE('',#1113,#284);
#228=LINE('',#1115,#285);
#229=LINE('',#1117,#286);
#230=LINE('',#1119,#287);
#231=LINE('',#1121,#288);
#232=LINE('',#1123,#289);
#233=LINE('',#1125,#290);
#234=LINE('',#1126,#291);
#235=LINE('',#1139,#292);
#236=LINE('',#1141,#293);
#237=LINE('',#1142,#294);
#238=LINE('',#1145,#295);
#239=LINE('',#1146,#296);
#240=LINE('',#1157,#297);
#241=LINE('',#1158,#298);
#242=LINE('',#1165,#299);
#243=LINE('',#1168,#300);
#244=LINE('',#1176,#301);
#245=LINE('',#1179,#302);
#246=LINE('',#1187,#303);
#247=LINE('',#1190,#304);
#248=LINE('',#1198,#305);
#249=LINE('',#1201,#306);
#250=LINE('',#1205,#307);
#251=LINE('',#1211,#308);
#252=LINE('',#1213,#309);
#253=LINE('',#1216,#310);
#254=LINE('',#1222,#311);
#255=LINE('',#1224,#312);
#256=LINE('',#1227,#313);
#257=LINE('',#1233,#314);
#258=LINE('',#1235,#315);
#259=LINE('',#1238,#316);
#260=LINE('',#1244,#317);
#261=LINE('',#1246,#318);
#262=LINE('',#1251,#319);
#263=LINE('',#1255,#320);
#264=LINE('',#1260,#321);
#265=LINE('',#1264,#322);
#266=LINE('',#1269,#323);
#267=LINE('',#1273,#324);
#268=LINE('',#1278,#325);
#269=LINE('',#1282,#326);
#270=LINE('',#1285,#327);
#271=LINE('',#1291,#328);
#272=LINE('',#1293,#329);
#273=LINE('',#1298,#330);
#274=LINE('',#1302,#331);
#275=LINE('',#1305,#332);
#276=LINE('',#1306,#333);
#277=LINE('',#1309,#334);
#278=LINE('',#1310,#335);
#279=LINE('',#1313,#336);
#280=LINE('',#1314,#337);
#281=LINE('',#1317,#338);
#282=LINE('',#1318,#339);
#283=LINE('',#1320,#340);
#284=VECTOR('',#878,10.);
#285=VECTOR('',#879,10.);
#286=VECTOR('',#880,10.);
#287=VECTOR('',#881,10.);
#288=VECTOR('',#882,10.);
#289=VECTOR('',#883,10.);
#290=VECTOR('',#884,10.);
#291=VECTOR('',#885,10.);
#292=VECTOR('',#898,10.);
#293=VECTOR('',#899,10.);
#294=VECTOR('',#900,10.);
#295=VECTOR('',#903,10.);
#296=VECTOR('',#904,10.);
#297=VECTOR('',#915,10.);
#298=VECTOR('',#916,10.);
#299=VECTOR('',#925,3.25);
#300=VECTOR('',#928,1.7);
#301=VECTOR('',#939,3.25);
#302=VECTOR('',#942,1.7);
#303=VECTOR('',#953,3.25);
#304=VECTOR('',#956,1.7);
#305=VECTOR('',#967,3.25);
#306=VECTOR('',#970,1.7);
#307=VECTOR('',#975,0.85);
#308=VECTOR('',#982,0.61475);
#309=VECTOR('',#985,1.2295);
#310=VECTOR('',#988,0.85);
#311=VECTOR('',#995,0.61475);
#312=VECTOR('',#998,1.2295);
#313=VECTOR('',#1001,0.85);
#314=VECTOR('',#1008,0.61475);
#315=VECTOR('',#1011,1.2295);
#316=VECTOR('',#1014,0.85);
#317=VECTOR('',#1021,0.61475);
#318=VECTOR('',#1024,1.2295);
#319=VECTOR('',#1029,0.61475);
#320=VECTOR('',#1034,1.2295);
#321=VECTOR('',#1039,0.61475);
#322=VECTOR('',#1044,1.2295);
#323=VECTOR('',#1049,0.61475);
#324=VECTOR('',#1054,1.2295);
#325=VECTOR('',#1059,0.61475);
#326=VECTOR('',#1064,1.2295);
#327=VECTOR('',#1067,0.85);
#328=VECTOR('',#1074,0.61475);
#329=VECTOR('',#1077,1.2295);
#330=VECTOR('',#1082,0.61475);
#331=VECTOR('',#1087,1.2295);
#332=VECTOR('',#1090,10.);
#333=VECTOR('',#1091,10.);
#334=VECTOR('',#1094,10.);
#335=VECTOR('',#1095,10.);
#336=VECTOR('',#1098,10.);
#337=VECTOR('',#1099,10.);
#338=VECTOR('',#1102,10.);
#339=VECTOR('',#1103,10.);
#340=VECTOR('',#1106,10.);
#341=VERTEX_POINT('',#1111);
#342=VERTEX_POINT('',#1112);
#343=VERTEX_POINT('',#1114);
#344=VERTEX_POINT('',#1116);
#345=VERTEX_POINT('',#1118);
#346=VERTEX_POINT('',#1120);
#347=VERTEX_POINT('',#1122);
#348=VERTEX_POINT('',#1124);
#349=VERTEX_POINT('',#1127);
#350=VERTEX_POINT('',#1129);
#351=VERTEX_POINT('',#1131);
#352=VERTEX_POINT('',#1133);
#353=VERTEX_POINT('',#1135);
#354=VERTEX_POINT('',#1138);
#355=VERTEX_POINT('',#1140);
#356=VERTEX_POINT('',#1144);
#357=VERTEX_POINT('',#1147);
#358=VERTEX_POINT('',#1149);
#359=VERTEX_POINT('',#1151);
#360=VERTEX_POINT('',#1153);
#361=VERTEX_POINT('',#1156);
#362=VERTEX_POINT('',#1160);
#363=VERTEX_POINT('',#1162);
#364=VERTEX_POINT('',#1167);
#365=VERTEX_POINT('',#1171);
#366=VERTEX_POINT('',#1173);
#367=VERTEX_POINT('',#1178);
#368=VERTEX_POINT('',#1182);
#369=VERTEX_POINT('',#1184);
#370=VERTEX_POINT('',#1189);
#371=VERTEX_POINT('',#1193);
#372=VERTEX_POINT('',#1195);
#373=VERTEX_POINT('',#1200);
#374=VERTEX_POINT('',#1204);
#375=VERTEX_POINT('',#1208);
#376=VERTEX_POINT('',#1210);
#377=VERTEX_POINT('',#1215);
#378=VERTEX_POINT('',#1219);
#379=VERTEX_POINT('',#1221);
#380=VERTEX_POINT('',#1226);
#381=VERTEX_POINT('',#1230);
#382=VERTEX_POINT('',#1232);
#383=VERTEX_POINT('',#1237);
#384=VERTEX_POINT('',#1241);
#385=VERTEX_POINT('',#1243);
#386=VERTEX_POINT('',#1248);
#387=VERTEX_POINT('',#1250);
#388=VERTEX_POINT('',#1253);
#389=VERTEX_POINT('',#1257);
#390=VERTEX_POINT('',#1259);
#391=VERTEX_POINT('',#1262);
#392=VERTEX_POINT('',#1266);
#393=VERTEX_POINT('',#1268);
#394=VERTEX_POINT('',#1271);
#395=VERTEX_POINT('',#1275);
#396=VERTEX_POINT('',#1277);
#397=VERTEX_POINT('',#1280);
#398=VERTEX_POINT('',#1284);
#399=VERTEX_POINT('',#1288);
#400=VERTEX_POINT('',#1290);
#401=VERTEX_POINT('',#1295);
#402=VERTEX_POINT('',#1297);
#403=VERTEX_POINT('',#1300);
#404=VERTEX_POINT('',#1304);
#405=VERTEX_POINT('',#1308);
#406=VERTEX_POINT('',#1312);
#407=VERTEX_POINT('',#1316);
#408=EDGE_CURVE('',#341,#342,#227,.T.);
#409=EDGE_CURVE('',#341,#343,#228,.T.);
#410=EDGE_CURVE('',#343,#344,#229,.T.);
#411=EDGE_CURVE('',#344,#345,#230,.T.);
#412=EDGE_CURVE('',#345,#346,#231,.T.);
#413=EDGE_CURVE('',#346,#347,#232,.T.);
#414=EDGE_CURVE('',#348,#347,#233,.T.);
#415=EDGE_CURVE('',#342,#348,#234,.T.);
#416=EDGE_CURVE('',#349,#349,#70,.T.);
#417=EDGE_CURVE('',#350,#350,#71,.T.);
#418=EDGE_CURVE('',#351,#351,#72,.T.);
#419=EDGE_CURVE('',#352,#352,#73,.T.);
#420=EDGE_CURVE('',#353,#353,#74,.T.);
#421=EDGE_CURVE('',#354,#341,#235,.T.);
#422=EDGE_CURVE('',#342,#355,#236,.T.);
#423=EDGE_CURVE('',#354,#355,#237,.T.);
#424=EDGE_CURVE('',#348,#356,#238,.T.);
#425=EDGE_CURVE('',#355,#356,#239,.T.);
#426=EDGE_CURVE('',#357,#357,#75,.T.);
#427=EDGE_CURVE('',#358,#358,#76,.T.);
#428=EDGE_CURVE('',#359,#359,#77,.T.);
#429=EDGE_CURVE('',#360,#360,#78,.T.);
#430=EDGE_CURVE('',#347,#361,#240,.T.);
#431=EDGE_CURVE('',#356,#361,#241,.T.);
#432=EDGE_CURVE('',#362,#362,#79,.T.);
#433=EDGE_CURVE('',#363,#363,#80,.T.);
#434=EDGE_CURVE('',#360,#362,#242,.T.);
#435=EDGE_CURVE('',#363,#364,#243,.T.);
#436=EDGE_CURVE('',#364,#364,#81,.T.);
#437=EDGE_CURVE('',#365,#365,#82,.T.);
#438=EDGE_CURVE('',#366,#366,#83,.T.);
#439=EDGE_CURVE('',#359,#365,#244,.T.);
#440=EDGE_CURVE('',#366,#367,#245,.T.);
#441=EDGE_CURVE('',#367,#367,#84,.T.);
#442=EDGE_CURVE('',#368,#368,#85,.T.);
#443=EDGE_CURVE('',#369,#369,#86,.T.);
#444=EDGE_CURVE('',#358,#368,#246,.T.);
#445=EDGE_CURVE('',#369,#370,#247,.T.);
#446=EDGE_CURVE('',#370,#370,#87,.T.);
#447=EDGE_CURVE('',#371,#371,#88,.T.);
#448=EDGE_CURVE('',#372,#372,#89,.T.);
#449=EDGE_CURVE('',#357,#371,#248,.T.);
#450=EDGE_CURVE('',#372,#373,#249,.T.);
#451=EDGE_CURVE('',#373,#373,#90,.T.);
#452=EDGE_CURVE('',#353,#374,#250,.T.);
#453=EDGE_CURVE('',#374,#374,#91,.T.);
#454=EDGE_CURVE('',#375,#375,#92,.T.);
#455=EDGE_CURVE('',#375,#376,#251,.T.);
#456=EDGE_CURVE('',#374,#375,#252,.T.);
#457=EDGE_CURVE('',#352,#377,#253,.T.);
#458=EDGE_CURVE('',#377,#377,#93,.T.);
#459=EDGE_CURVE('',#378,#378,#94,.T.);
#460=EDGE_CURVE('',#378,#379,#254,.T.);
#461=EDGE_CURVE('',#377,#378,#255,.T.);
#462=EDGE_CURVE('',#351,#380,#256,.T.);
#463=EDGE_CURVE('',#380,#380,#95,.T.);
#464=EDGE_CURVE('',#381,#381,#96,.T.);
#465=EDGE_CURVE('',#381,#382,#257,.T.);
#466=EDGE_CURVE('',#380,#381,#258,.T.);
#467=EDGE_CURVE('',#350,#383,#259,.T.);
#468=EDGE_CURVE('',#383,#383,#97,.T.);
#469=EDGE_CURVE('',#384,#384,#98,.T.);
#470=EDGE_CURVE('',#384,#385,#260,.T.);
#471=EDGE_CURVE('',#383,#384,#261,.T.);
#472=EDGE_CURVE('',#386,#386,#99,.T.);
#473=EDGE_CURVE('',#386,#387,#262,.T.);
#474=EDGE_CURVE('',#388,#388,#100,.T.);
#475=EDGE_CURVE('',#388,#386,#263,.T.);
#476=EDGE_CURVE('',#389,#389,#101,.T.);
#477=EDGE_CURVE('',#389,#390,#264,.T.);
#478=EDGE_CURVE('',#391,#391,#102,.T.);
#479=EDGE_CURVE('',#391,#389,#265,.T.);
#480=EDGE_CURVE('',#392,#392,#103,.T.);
#481=EDGE_CURVE('',#392,#393,#266,.T.);
#482=EDGE_CURVE('',#394,#394,#104,.T.);
#483=EDGE_CURVE('',#394,#392,#267,.T.);
#484=EDGE_CURVE('',#395,#395,#105,.T.);
#485=EDGE_CURVE('',#395,#396,#268,.T.);
#486=EDGE_CURVE('',#397,#397,#106,.T.);
#487=EDGE_CURVE('',#397,#395,#269,.T.);
#488=EDGE_CURVE('',#349,#398,#270,.T.);
#489=EDGE_CURVE('',#398,#398,#107,.T.);
#490=EDGE_CURVE('',#399,#399,#108,.T.);
#491=EDGE_CURVE('',#399,#400,#271,.T.);
#492=EDGE_CURVE('',#398,#399,#272,.T.);
#493=EDGE_CURVE('',#401,#401,#109,.T.);
#494=EDGE_CURVE('',#401,#402,#273,.T.);
#495=EDGE_CURVE('',#403,#403,#110,.T.);
#496=EDGE_CURVE('',#403,#401,#274,.T.);
#497=EDGE_CURVE('',#404,#354,#275,.T.);
#498=EDGE_CURVE('',#343,#404,#276,.T.);
#499=EDGE_CURVE('',#405,#404,#277,.T.);
#500=EDGE_CURVE('',#344,#405,#278,.T.);
#501=EDGE_CURVE('',#406,#405,#279,.T.);
#502=EDGE_CURVE('',#345,#406,#280,.T.);
#503=EDGE_CURVE('',#407,#406,#281,.T.);
#504=EDGE_CURVE('',#346,#407,#282,.T.);
#505=EDGE_CURVE('',#361,#407,#283,.T.);
#506=ORIENTED_EDGE('',*,*,#408,.F.);
#507=ORIENTED_EDGE('',*,*,#409,.T.);
#508=ORIENTED_EDGE('',*,*,#410,.T.);
#509=ORIENTED_EDGE('',*,*,#411,.T.);
#510=ORIENTED_EDGE('',*,*,#412,.T.);
#511=ORIENTED_EDGE('',*,*,#413,.T.);
#512=ORIENTED_EDGE('',*,*,#414,.F.);
#513=ORIENTED_EDGE('',*,*,#415,.F.);
#514=ORIENTED_EDGE('',*,*,#416,.F.);
#515=ORIENTED_EDGE('',*,*,#417,.F.);
#516=ORIENTED_EDGE('',*,*,#418,.F.);
#517=ORIENTED_EDGE('',*,*,#419,.F.);
#518=ORIENTED_EDGE('',*,*,#420,.F.);
#519=ORIENTED_EDGE('',*,*,#421,.T.);
#520=ORIENTED_EDGE('',*,*,#408,.T.);
#521=ORIENTED_EDGE('',*,*,#422,.T.);
#522=ORIENTED_EDGE('',*,*,#423,.F.);
#523=ORIENTED_EDGE('',*,*,#415,.T.);
#524=ORIENTED_EDGE('',*,*,#424,.T.);
#525=ORIENTED_EDGE('',*,*,#425,.F.);
#526=ORIENTED_EDGE('',*,*,#422,.F.);
#527=ORIENTED_EDGE('',*,*,#426,.T.);
#528=ORIENTED_EDGE('',*,*,#427,.T.);
#529=ORIENTED_EDGE('',*,*,#428,.T.);
#530=ORIENTED_EDGE('',*,*,#429,.T.);
#531=ORIENTED_EDGE('',*,*,#414,.T.);
#532=ORIENTED_EDGE('',*,*,#430,.T.);
#533=ORIENTED_EDGE('',*,*,#431,.F.);
#534=ORIENTED_EDGE('',*,*,#424,.F.);
#535=ORIENTED_EDGE('',*,*,#432,.T.);
#536=ORIENTED_EDGE('',*,*,#433,.F.);
#537=ORIENTED_EDGE('',*,*,#429,.F.);
#538=ORIENTED_EDGE('',*,*,#434,.T.);
#539=ORIENTED_EDGE('',*,*,#432,.F.);
#540=ORIENTED_EDGE('',*,*,#434,.F.);
#541=ORIENTED_EDGE('',*,*,#433,.T.);
#542=ORIENTED_EDGE('',*,*,#435,.T.);
#543=ORIENTED_EDGE('',*,*,#436,.F.);
#544=ORIENTED_EDGE('',*,*,#435,.F.);
#545=ORIENTED_EDGE('',*,*,#437,.T.);
#546=ORIENTED_EDGE('',*,*,#438,.F.);
#547=ORIENTED_EDGE('',*,*,#428,.F.);
#548=ORIENTED_EDGE('',*,*,#439,.T.);
#549=ORIENTED_EDGE('',*,*,#437,.F.);
#550=ORIENTED_EDGE('',*,*,#439,.F.);
#551=ORIENTED_EDGE('',*,*,#438,.T.);
#552=ORIENTED_EDGE('',*,*,#440,.T.);
#553=ORIENTED_EDGE('',*,*,#441,.F.);
#554=ORIENTED_EDGE('',*,*,#440,.F.);
#555=ORIENTED_EDGE('',*,*,#442,.T.);
#556=ORIENTED_EDGE('',*,*,#443,.F.);
#557=ORIENTED_EDGE('',*,*,#427,.F.);
#558=ORIENTED_EDGE('',*,*,#444,.T.);
#559=ORIENTED_EDGE('',*,*,#442,.F.);
#560=ORIENTED_EDGE('',*,*,#444,.F.);
#561=ORIENTED_EDGE('',*,*,#443,.T.);
#562=ORIENTED_EDGE('',*,*,#445,.T.);
#563=ORIENTED_EDGE('',*,*,#446,.F.);
#564=ORIENTED_EDGE('',*,*,#445,.F.);
#565=ORIENTED_EDGE('',*,*,#447,.T.);
#566=ORIENTED_EDGE('',*,*,#448,.F.);
#567=ORIENTED_EDGE('',*,*,#426,.F.);
#568=ORIENTED_EDGE('',*,*,#449,.T.);
#569=ORIENTED_EDGE('',*,*,#447,.F.);
#570=ORIENTED_EDGE('',*,*,#449,.F.);
#571=ORIENTED_EDGE('',*,*,#448,.T.);
#572=ORIENTED_EDGE('',*,*,#450,.T.);
#573=ORIENTED_EDGE('',*,*,#451,.F.);
#574=ORIENTED_EDGE('',*,*,#450,.F.);
#575=ORIENTED_EDGE('',*,*,#420,.T.);
#576=ORIENTED_EDGE('',*,*,#452,.T.);
#577=ORIENTED_EDGE('',*,*,#453,.T.);
#578=ORIENTED_EDGE('',*,*,#452,.F.);
#579=ORIENTED_EDGE('',*,*,#454,.T.);
#580=ORIENTED_EDGE('',*,*,#455,.T.);
#581=ORIENTED_EDGE('',*,*,#455,.F.);
#582=ORIENTED_EDGE('',*,*,#453,.F.);
#583=ORIENTED_EDGE('',*,*,#456,.T.);
#584=ORIENTED_EDGE('',*,*,#454,.F.);
#585=ORIENTED_EDGE('',*,*,#456,.F.);
#586=ORIENTED_EDGE('',*,*,#419,.T.);
#587=ORIENTED_EDGE('',*,*,#457,.T.);
#588=ORIENTED_EDGE('',*,*,#458,.T.);
#589=ORIENTED_EDGE('',*,*,#457,.F.);
#590=ORIENTED_EDGE('',*,*,#459,.T.);
#591=ORIENTED_EDGE('',*,*,#460,.T.);
#592=ORIENTED_EDGE('',*,*,#460,.F.);
#593=ORIENTED_EDGE('',*,*,#458,.F.);
#594=ORIENTED_EDGE('',*,*,#461,.T.);
#595=ORIENTED_EDGE('',*,*,#459,.F.);
#596=ORIENTED_EDGE('',*,*,#461,.F.);
#597=ORIENTED_EDGE('',*,*,#418,.T.);
#598=ORIENTED_EDGE('',*,*,#462,.T.);
#599=ORIENTED_EDGE('',*,*,#463,.T.);
#600=ORIENTED_EDGE('',*,*,#462,.F.);
#601=ORIENTED_EDGE('',*,*,#464,.T.);
#602=ORIENTED_EDGE('',*,*,#465,.T.);
#603=ORIENTED_EDGE('',*,*,#465,.F.);
#604=ORIENTED_EDGE('',*,*,#463,.F.);
#605=ORIENTED_EDGE('',*,*,#466,.T.);
#606=ORIENTED_EDGE('',*,*,#464,.F.);
#607=ORIENTED_EDGE('',*,*,#466,.F.);
#608=ORIENTED_EDGE('',*,*,#417,.T.);
#609=ORIENTED_EDGE('',*,*,#467,.T.);
#610=ORIENTED_EDGE('',*,*,#468,.T.);
#611=ORIENTED_EDGE('',*,*,#467,.F.);
#612=ORIENTED_EDGE('',*,*,#469,.T.);
#613=ORIENTED_EDGE('',*,*,#470,.T.);
#614=ORIENTED_EDGE('',*,*,#470,.F.);
#615=ORIENTED_EDGE('',*,*,#468,.F.);
#616=ORIENTED_EDGE('',*,*,#471,.T.);
#617=ORIENTED_EDGE('',*,*,#469,.F.);
#618=ORIENTED_EDGE('',*,*,#471,.F.);
#619=ORIENTED_EDGE('',*,*,#472,.T.);
#620=ORIENTED_EDGE('',*,*,#473,.T.);
#621=ORIENTED_EDGE('',*,*,#473,.F.);
#622=ORIENTED_EDGE('',*,*,#474,.F.);
#623=ORIENTED_EDGE('',*,*,#475,.T.);
#624=ORIENTED_EDGE('',*,*,#472,.F.);
#625=ORIENTED_EDGE('',*,*,#475,.F.);
#626=ORIENTED_EDGE('',*,*,#476,.T.);
#627=ORIENTED_EDGE('',*,*,#477,.T.);
#628=ORIENTED_EDGE('',*,*,#477,.F.);
#629=ORIENTED_EDGE('',*,*,#478,.F.);
#630=ORIENTED_EDGE('',*,*,#479,.T.);
#631=ORIENTED_EDGE('',*,*,#476,.F.);
#632=ORIENTED_EDGE('',*,*,#479,.F.);
#633=ORIENTED_EDGE('',*,*,#480,.T.);
#634=ORIENTED_EDGE('',*,*,#481,.T.);
#635=ORIENTED_EDGE('',*,*,#481,.F.);
#636=ORIENTED_EDGE('',*,*,#482,.F.);
#637=ORIENTED_EDGE('',*,*,#483,.T.);
#638=ORIENTED_EDGE('',*,*,#480,.F.);
#639=ORIENTED_EDGE('',*,*,#483,.F.);
#640=ORIENTED_EDGE('',*,*,#484,.T.);
#641=ORIENTED_EDGE('',*,*,#485,.T.);
#642=ORIENTED_EDGE('',*,*,#485,.F.);
#643=ORIENTED_EDGE('',*,*,#486,.F.);
#644=ORIENTED_EDGE('',*,*,#487,.T.);
#645=ORIENTED_EDGE('',*,*,#484,.F.);
#646=ORIENTED_EDGE('',*,*,#487,.F.);
#647=ORIENTED_EDGE('',*,*,#416,.T.);
#648=ORIENTED_EDGE('',*,*,#488,.T.);
#649=ORIENTED_EDGE('',*,*,#489,.F.);
#650=ORIENTED_EDGE('',*,*,#488,.F.);
#651=ORIENTED_EDGE('',*,*,#490,.T.);
#652=ORIENTED_EDGE('',*,*,#491,.T.);
#653=ORIENTED_EDGE('',*,*,#491,.F.);
#654=ORIENTED_EDGE('',*,*,#489,.T.);
#655=ORIENTED_EDGE('',*,*,#492,.T.);
#656=ORIENTED_EDGE('',*,*,#490,.F.);
#657=ORIENTED_EDGE('',*,*,#492,.F.);
#658=ORIENTED_EDGE('',*,*,#493,.T.);
#659=ORIENTED_EDGE('',*,*,#494,.T.);
#660=ORIENTED_EDGE('',*,*,#494,.F.);
#661=ORIENTED_EDGE('',*,*,#495,.F.);
#662=ORIENTED_EDGE('',*,*,#496,.T.);
#663=ORIENTED_EDGE('',*,*,#493,.F.);
#664=ORIENTED_EDGE('',*,*,#496,.F.);
#665=ORIENTED_EDGE('',*,*,#409,.F.);
#666=ORIENTED_EDGE('',*,*,#421,.F.);
#667=ORIENTED_EDGE('',*,*,#497,.F.);
#668=ORIENTED_EDGE('',*,*,#498,.F.);
#669=ORIENTED_EDGE('',*,*,#446,.T.);
#670=ORIENTED_EDGE('',*,*,#441,.T.);
#671=ORIENTED_EDGE('',*,*,#410,.F.);
#672=ORIENTED_EDGE('',*,*,#498,.T.);
#673=ORIENTED_EDGE('',*,*,#499,.F.);
#674=ORIENTED_EDGE('',*,*,#500,.F.);
#675=ORIENTED_EDGE('',*,*,#411,.F.);
#676=ORIENTED_EDGE('',*,*,#500,.T.);
#677=ORIENTED_EDGE('',*,*,#501,.F.);
#678=ORIENTED_EDGE('',*,*,#502,.F.);
#679=ORIENTED_EDGE('',*,*,#412,.F.);
#680=ORIENTED_EDGE('',*,*,#502,.T.);
#681=ORIENTED_EDGE('',*,*,#503,.F.);
#682=ORIENTED_EDGE('',*,*,#504,.F.);
#683=ORIENTED_EDGE('',*,*,#413,.F.);
#684=ORIENTED_EDGE('',*,*,#504,.T.);
#685=ORIENTED_EDGE('',*,*,#505,.F.);
#686=ORIENTED_EDGE('',*,*,#430,.F.);
#687=ORIENTED_EDGE('',*,*,#436,.T.);
#688=ORIENTED_EDGE('',*,*,#451,.T.);
#689=ORIENTED_EDGE('',*,*,#497,.T.);
#690=ORIENTED_EDGE('',*,*,#423,.T.);
#691=ORIENTED_EDGE('',*,*,#425,.T.);
#692=ORIENTED_EDGE('',*,*,#431,.T.);
#693=ORIENTED_EDGE('',*,*,#505,.T.);
#694=ORIENTED_EDGE('',*,*,#503,.T.);
#695=ORIENTED_EDGE('',*,*,#501,.T.);
#696=ORIENTED_EDGE('',*,*,#499,.T.);
#697=ORIENTED_EDGE('',*,*,#474,.T.);
#698=ORIENTED_EDGE('',*,*,#478,.T.);
#699=ORIENTED_EDGE('',*,*,#482,.T.);
#700=ORIENTED_EDGE('',*,*,#486,.T.);
#701=ORIENTED_EDGE('',*,*,#495,.T.);
#702=PLANE('',#786);
#703=PLANE('',#792);
#704=PLANE('',#793);
#705=PLANE('',#798);
#706=PLANE('',#799);
#707=PLANE('',#805);
#708=PLANE('',#811);
#709=PLANE('',#817);
#710=PLANE('',#868);
#711=PLANE('',#869);
#712=PLANE('',#870);
#713=PLANE('',#871);
#714=PLANE('',#872);
#715=PLANE('',#873);
#716=ADVANCED_FACE('',(#111,#48,#49,#50,#51,#52),#702,.F.);
#717=ADVANCED_FACE('',(#112),#703,.T.);
#718=ADVANCED_FACE('',(#113,#53,#54,#55,#56),#704,.T.);
#719=ADVANCED_FACE('',(#114),#705,.T.);
#720=ADVANCED_FACE('',(#115,#57),#706,.T.);
#721=ADVANCED_FACE('',(#116),#30,.F.);
#722=ADVANCED_FACE('',(#117),#31,.F.);
#723=ADVANCED_FACE('',(#118,#58),#707,.T.);
#724=ADVANCED_FACE('',(#119),#32,.F.);
#725=ADVANCED_FACE('',(#120),#33,.F.);
#726=ADVANCED_FACE('',(#121,#59),#708,.T.);
#727=ADVANCED_FACE('',(#122),#34,.F.);
#728=ADVANCED_FACE('',(#123),#35,.F.);
#729=ADVANCED_FACE('',(#124,#60),#709,.T.);
#730=ADVANCED_FACE('',(#125),#36,.F.);
#731=ADVANCED_FACE('',(#126),#37,.F.);
#732=ADVANCED_FACE('',(#127),#15,.F.);
#733=ADVANCED_FACE('',(#128),#16,.F.);
#734=ADVANCED_FACE('',(#129),#38,.F.);
#735=ADVANCED_FACE('',(#130),#17,.F.);
#736=ADVANCED_FACE('',(#131),#18,.F.);
#737=ADVANCED_FACE('',(#132),#39,.F.);
#738=ADVANCED_FACE('',(#133),#19,.F.);
#739=ADVANCED_FACE('',(#134),#20,.F.);
#740=ADVANCED_FACE('',(#135),#40,.F.);
#741=ADVANCED_FACE('',(#136),#21,.F.);
#742=ADVANCED_FACE('',(#137),#22,.F.);
#743=ADVANCED_FACE('',(#138),#41,.F.);
#744=ADVANCED_FACE('',(#139),#23,.F.);
#745=ADVANCED_FACE('',(#140),#42,.F.);
#746=ADVANCED_FACE('',(#141),#24,.F.);
#747=ADVANCED_FACE('',(#142),#43,.F.);
#748=ADVANCED_FACE('',(#143),#25,.F.);
#749=ADVANCED_FACE('',(#144),#44,.F.);
#750=ADVANCED_FACE('',(#145),#26,.F.);
#751=ADVANCED_FACE('',(#146),#45,.F.);
#752=ADVANCED_FACE('',(#147),#27,.F.);
#753=ADVANCED_FACE('',(#148),#28,.F.);
#754=ADVANCED_FACE('',(#149),#46,.F.);
#755=ADVANCED_FACE('',(#150),#29,.F.);
#756=ADVANCED_FACE('',(#151),#47,.F.);
#757=ADVANCED_FACE('',(#152,#61,#62),#710,.T.);
#758=ADVANCED_FACE('',(#153),#711,.T.);
#759=ADVANCED_FACE('',(#154),#712,.T.);
#760=ADVANCED_FACE('',(#155),#713,.T.);
#761=ADVANCED_FACE('',(#156,#63,#64),#714,.T.);
#762=ADVANCED_FACE('',(#157,#65,#66,#67,#68,#69),#715,.T.);
#763=CLOSED_SHELL('',(#716,#717,#718,#719,#720,#721,#722,#723,#724,#725,
#726,#727,#728,#729,#730,#731,#732,#733,#734,#735,#736,#737,#738,#739,#740,
#741,#742,#743,#744,#745,#746,#747,#748,#749,#750,#751,#752,#753,#754,#755,
#756,#757,#758,#759,#760,#761,#762));
#764=DERIVED_UNIT_ELEMENT(#767,1.);
#765=DERIVED_UNIT_ELEMENT(#1327,-3.);
#766=DIMENSIONAL_EXPONENTS(1.,0.,0.,0.,0.,0.,0.);
#767=(
CONVERSION_BASED_UNIT('gram',#769)
MASS_UNIT()
NAMED_UNIT(#766)
);
#768=(
MASS_UNIT()
NAMED_UNIT(*)
SI_UNIT(.KILO.,.GRAM.)
);
#769=MASS_MEASURE_WITH_UNIT(MASS_MEASURE(0.001),#768);
#770=DERIVED_UNIT((#764,#765));
#771=MEASURE_REPRESENTATION_ITEM('density measure',
POSITIVE_RATIO_MEASURE(1.2),#770);
#772=PROPERTY_DEFINITION_REPRESENTATION(#777,#774);
#773=PROPERTY_DEFINITION_REPRESENTATION(#778,#775);
#774=REPRESENTATION('material name',(#776),#1324);
#775=REPRESENTATION('density',(#771),#1324);
#776=DESCRIPTIVE_REPRESENTATION_ITEM('Polycarbonate, Smoke',
'Polycarbonate, Smoke');
#777=PROPERTY_DEFINITION('material property','material name',#1334);
#778=PROPERTY_DEFINITION('material property','density of part',#1334);
#779=DATE_TIME_ROLE('creation_date');
#780=APPLIED_DATE_AND_TIME_ASSIGNMENT(#781,#779,(#1334));
#781=DATE_AND_TIME(#782,#783);
#782=CALENDAR_DATE(2022,22,3);
#783=LOCAL_TIME(0,0,0.,#784);
#784=COORDINATED_UNIVERSAL_TIME_OFFSET(0,0,.BEHIND.);
#785=AXIS2_PLACEMENT_3D('placement',#1109,#874,#875);
#786=AXIS2_PLACEMENT_3D('',#1110,#876,#877);
#787=AXIS2_PLACEMENT_3D('',#1128,#886,#887);
#788=AXIS2_PLACEMENT_3D('',#1130,#888,#889);
#789=AXIS2_PLACEMENT_3D('',#1132,#890,#891);
#790=AXIS2_PLACEMENT_3D('',#1134,#892,#893);
#791=AXIS2_PLACEMENT_3D('',#1136,#894,#895);
#792=AXIS2_PLACEMENT_3D('',#1137,#896,#897);
#793=AXIS2_PLACEMENT_3D('',#1143,#901,#902);
#794=AXIS2_PLACEMENT_3D('',#1148,#905,#906);
#795=AXIS2_PLACEMENT_3D('',#1150,#907,#908);
#796=AXIS2_PLACEMENT_3D('',#1152,#909,#910);
#797=AXIS2_PLACEMENT_3D('',#1154,#911,#912);
#798=AXIS2_PLACEMENT_3D('',#1155,#913,#914);
#799=AXIS2_PLACEMENT_3D('',#1159,#917,#918);
#800=AXIS2_PLACEMENT_3D('',#1161,#919,#920);
#801=AXIS2_PLACEMENT_3D('',#1163,#921,#922);
#802=AXIS2_PLACEMENT_3D('',#1164,#923,#924);
#803=AXIS2_PLACEMENT_3D('',#1166,#926,#927);
#804=AXIS2_PLACEMENT_3D('',#1169,#929,#930);
#805=AXIS2_PLACEMENT_3D('',#1170,#931,#932);
#806=AXIS2_PLACEMENT_3D('',#1172,#933,#934);
#807=AXIS2_PLACEMENT_3D('',#1174,#935,#936);
#808=AXIS2_PLACEMENT_3D('',#1175,#937,#938);
#809=AXIS2_PLACEMENT_3D('',#1177,#940,#941);
#810=AXIS2_PLACEMENT_3D('',#1180,#943,#944);
#811=AXIS2_PLACEMENT_3D('',#1181,#945,#946);
#812=AXIS2_PLACEMENT_3D('',#1183,#947,#948);
#813=AXIS2_PLACEMENT_3D('',#1185,#949,#950);
#814=AXIS2_PLACEMENT_3D('',#1186,#951,#952);
#815=AXIS2_PLACEMENT_3D('',#1188,#954,#955);
#816=AXIS2_PLACEMENT_3D('',#1191,#957,#958);
#817=AXIS2_PLACEMENT_3D('',#1192,#959,#960);
#818=AXIS2_PLACEMENT_3D('',#1194,#961,#962);
#819=AXIS2_PLACEMENT_3D('',#1196,#963,#964);
#820=AXIS2_PLACEMENT_3D('',#1197,#965,#966);
#821=AXIS2_PLACEMENT_3D('',#1199,#968,#969);
#822=AXIS2_PLACEMENT_3D('',#1202,#971,#972);
#823=AXIS2_PLACEMENT_3D('',#1203,#973,#974);
#824=AXIS2_PLACEMENT_3D('',#1206,#976,#977);
#825=AXIS2_PLACEMENT_3D('',#1207,#978,#979);
#826=AXIS2_PLACEMENT_3D('',#1209,#980,#981);
#827=AXIS2_PLACEMENT_3D('',#1212,#983,#984);
#828=AXIS2_PLACEMENT_3D('',#1214,#986,#987);
#829=AXIS2_PLACEMENT_3D('',#1217,#989,#990);
#830=AXIS2_PLACEMENT_3D('',#1218,#991,#992);
#831=AXIS2_PLACEMENT_3D('',#1220,#993,#994);
#832=AXIS2_PLACEMENT_3D('',#1223,#996,#997);
#833=AXIS2_PLACEMENT_3D('',#1225,#999,#1000);
#834=AXIS2_PLACEMENT_3D('',#1228,#1002,#1003);
#835=AXIS2_PLACEMENT_3D('',#1229,#1004,#1005);
#836=AXIS2_PLACEMENT_3D('',#1231,#1006,#1007);
#837=AXIS2_PLACEMENT_3D('',#1234,#1009,#1010);
#838=AXIS2_PLACEMENT_3D('',#1236,#1012,#1013);
#839=AXIS2_PLACEMENT_3D('',#1239,#1015,#1016);
#840=AXIS2_PLACEMENT_3D('',#1240,#1017,#1018);
#841=AXIS2_PLACEMENT_3D('',#1242,#1019,#1020);
#842=AXIS2_PLACEMENT_3D('',#1245,#1022,#1023);
#843=AXIS2_PLACEMENT_3D('',#1247,#1025,#1026);
#844=AXIS2_PLACEMENT_3D('',#1249,#1027,#1028);
#845=AXIS2_PLACEMENT_3D('',#1252,#1030,#1031);
#846=AXIS2_PLACEMENT_3D('',#1254,#1032,#1033);
#847=AXIS2_PLACEMENT_3D('',#1256,#1035,#1036);
#848=AXIS2_PLACEMENT_3D('',#1258,#1037,#1038);
#849=AXIS2_PLACEMENT_3D('',#1261,#1040,#1041);
#850=AXIS2_PLACEMENT_3D('',#1263,#1042,#1043);
#851=AXIS2_PLACEMENT_3D('',#1265,#1045,#1046);
#852=AXIS2_PLACEMENT_3D('',#1267,#1047,#1048);
#853=AXIS2_PLACEMENT_3D('',#1270,#1050,#1051);
#854=AXIS2_PLACEMENT_3D('',#1272,#1052,#1053);
#855=AXIS2_PLACEMENT_3D('',#1274,#1055,#1056);
#856=AXIS2_PLACEMENT_3D('',#1276,#1057,#1058);
#857=AXIS2_PLACEMENT_3D('',#1279,#1060,#1061);
#858=AXIS2_PLACEMENT_3D('',#1281,#1062,#1063);
#859=AXIS2_PLACEMENT_3D('',#1283,#1065,#1066);
#860=AXIS2_PLACEMENT_3D('',#1286,#1068,#1069);
#861=AXIS2_PLACEMENT_3D('',#1287,#1070,#1071);
#862=AXIS2_PLACEMENT_3D('',#1289,#1072,#1073);
#863=AXIS2_PLACEMENT_3D('',#1292,#1075,#1076);
#864=AXIS2_PLACEMENT_3D('',#1294,#1078,#1079);
#865=AXIS2_PLACEMENT_3D('',#1296,#1080,#1081);
#866=AXIS2_PLACEMENT_3D('',#1299,#1083,#1084);
#867=AXIS2_PLACEMENT_3D('',#1301,#1085,#1086);
#868=AXIS2_PLACEMENT_3D('',#1303,#1088,#1089);
#869=AXIS2_PLACEMENT_3D('',#1307,#1092,#1093);
#870=AXIS2_PLACEMENT_3D('',#1311,#1096,#1097);
#871=AXIS2_PLACEMENT_3D('',#1315,#1100,#1101);
#872=AXIS2_PLACEMENT_3D('',#1319,#1104,#1105);
#873=AXIS2_PLACEMENT_3D('',#1321,#1107,#1108);
#874=DIRECTION('axis',(0.,0.,1.));
#875=DIRECTION('refdir',(1.,0.,0.));
#876=DIRECTION('center_axis',(-2.59052039079203E-16,1.,0.));
#877=DIRECTION('ref_axis',(1.,2.59052039079203E-16,0.));
#878=DIRECTION('',(-1.,-2.59052039079203E-16,0.));
#879=DIRECTION('',(1.40877494583963E-16,0.,1.));
#880=DIRECTION('',(-1.,0.,0.));
#881=DIRECTION('',(6.93889390390722E-16,0.,1.));
#882=DIRECTION('',(1.,0.,0.));
#883=DIRECTION('',(1.83318559277632E-16,0.,1.));
#884=DIRECTION('',(1.,2.59052039079203E-16,0.));
#885=DIRECTION('',(-1.09314267040015E-16,-2.83180837771645E-32,1.));
#886=DIRECTION('center_axis',(0.,-1.,0.));
#887=DIRECTION('ref_axis',(1.,0.,0.));
#888=DIRECTION('center_axis',(0.,-1.,0.));
#889=DIRECTION('ref_axis',(1.,0.,0.));
#890=DIRECTION('center_axis',(0.,-1.,0.));
#891=DIRECTION('ref_axis',(1.,0.,0.));
#892=DIRECTION('center_axis',(0.,-1.,0.));
#893=DIRECTION('ref_axis',(1.,0.,0.));
#894=DIRECTION('center_axis',(0.,-1.,0.));
#895=DIRECTION('ref_axis',(1.,0.,0.));
#896=DIRECTION('center_axis',(0.,0.,-1.));
#897=DIRECTION('ref_axis',(1.,0.,0.));
#898=DIRECTION('',(0.,-1.,0.));
#899=DIRECTION('',(0.,1.,0.));
#900=DIRECTION('',(-1.,0.,5.9211894646675E-16));
#901=DIRECTION('center_axis',(-1.,0.,-1.09314267040015E-16));
#902=DIRECTION('ref_axis',(1.09314267040015E-16,0.,-1.));
#903=DIRECTION('',(0.,1.,0.));
#904=DIRECTION('',(-1.09314267040015E-16,0.,1.));
#905=DIRECTION('center_axis',(1.,0.,1.09314267040015E-16));
#906=DIRECTION('ref_axis',(-1.09314267040015E-16,0.,1.));
#907=DIRECTION('center_axis',(1.,0.,1.09314267040015E-16));
#908=DIRECTION('ref_axis',(-1.09314267040015E-16,0.,1.));
#909=DIRECTION('center_axis',(1.,0.,1.09314267040015E-16));
#910=DIRECTION('ref_axis',(-1.09314267040015E-16,0.,1.));
#911=DIRECTION('center_axis',(1.,0.,1.09314267040015E-16));
#912=DIRECTION('ref_axis',(-1.09314267040015E-16,0.,1.));
#913=DIRECTION('center_axis',(0.,0.,1.));
#914=DIRECTION('ref_axis',(-1.,0.,0.));
#915=DIRECTION('',(0.,1.,0.));
#916=DIRECTION('',(1.,0.,0.));
#917=DIRECTION('center_axis',(-1.,0.,-1.09314267040015E-16));
#918=DIRECTION('ref_axis',(-1.09314267040015E-16,0.,1.));
#919=DIRECTION('center_axis',(-1.,0.,-1.09314267040015E-16));
#920=DIRECTION('ref_axis',(-1.09314267040015E-16,0.,1.));
#921=DIRECTION('center_axis',(-1.,0.,-1.09314267040015E-16));
#922=DIRECTION('ref_axis',(-1.09314267040015E-16,0.,1.));
#923=DIRECTION('center_axis',(-1.,0.,-1.09314267040015E-16));
#924=DIRECTION('ref_axis',(-1.09314267040015E-16,0.,1.));
#925=DIRECTION('',(1.,0.,1.09314267040015E-16));
#926=DIRECTION('center_axis',(-1.,0.,-1.09314267040015E-16));
#927=DIRECTION('ref_axis',(-1.09314267040015E-16,0.,1.));
#928=DIRECTION('',(1.,0.,1.09314267040015E-16));
#929=DIRECTION('center_axis',(-1.,0.,-1.09314267040015E-16));
#930=DIRECTION('ref_axis',(-1.09314267040015E-16,0.,1.));
#931=DIRECTION('center_axis',(-1.,0.,-1.09314267040015E-16));
#932=DIRECTION('ref_axis',(-1.09314267040015E-16,0.,1.));
#933=DIRECTION('center_axis',(-1.,0.,-1.09314267040015E-16));
#934=DIRECTION('ref_axis',(-1.09314267040015E-16,0.,1.));
#935=DIRECTION('center_axis',(-1.,0.,-1.09314267040015E-16));
#936=DIRECTION('ref_axis',(-1.09314267040015E-16,0.,1.));
#937=DIRECTION('center_axis',(-1.,0.,-1.09314267040015E-16));
#938=DIRECTION('ref_axis',(-1.09314267040015E-16,0.,1.));
#939=DIRECTION('',(1.,0.,1.09314267040015E-16));
#940=DIRECTION('center_axis',(-1.,0.,-1.09314267040015E-16));
#941=DIRECTION('ref_axis',(-1.09314267040015E-16,0.,1.));
#942=DIRECTION('',(1.,0.,1.09314267040015E-16));
#943=DIRECTION('center_axis',(-1.,0.,-1.09314267040015E-16));
#944=DIRECTION('ref_axis',(-1.09314267040015E-16,0.,1.));
#945=DIRECTION('center_axis',(-1.,0.,-1.09314267040015E-16));
#946=DIRECTION('ref_axis',(-1.09314267040015E-16,0.,1.));
#947=DIRECTION('center_axis',(-1.,0.,-1.09314267040015E-16));
#948=DIRECTION('ref_axis',(-1.09314267040015E-16,0.,1.));
#949=DIRECTION('center_axis',(-1.,0.,-1.09314267040015E-16));
#950=DIRECTION('ref_axis',(-1.09314267040015E-16,0.,1.));
#951=DIRECTION('center_axis',(-1.,0.,-1.09314267040015E-16));
#952=DIRECTION('ref_axis',(-1.09314267040015E-16,0.,1.));
#953=DIRECTION('',(1.,0.,1.09314267040015E-16));
#954=DIRECTION('center_axis',(-1.,0.,-1.09314267040015E-16));
#955=DIRECTION('ref_axis',(-1.09314267040015E-16,0.,1.));
#956=DIRECTION('',(1.,0.,1.09314267040015E-16));
#957=DIRECTION('center_axis',(-1.,0.,-1.09314267040015E-16));
#958=DIRECTION('ref_axis',(-1.09314267040015E-16,0.,1.));
#959=DIRECTION('center_axis',(-1.,0.,-1.09314267040015E-16));
#960=DIRECTION('ref_axis',(-1.09314267040015E-16,0.,1.));
#961=DIRECTION('center_axis',(-1.,0.,-1.09314267040015E-16));
#962=DIRECTION('ref_axis',(-1.09314267040015E-16,0.,1.));
#963=DIRECTION('center_axis',(-1.,0.,-1.09314267040015E-16));
#964=DIRECTION('ref_axis',(-1.09314267040015E-16,0.,1.));
#965=DIRECTION('center_axis',(-1.,0.,-1.09314267040015E-16));
#966=DIRECTION('ref_axis',(-1.09314267040015E-16,0.,1.));
#967=DIRECTION('',(1.,0.,1.09314267040015E-16));
#968=DIRECTION('center_axis',(-1.,0.,-1.09314267040015E-16));
#969=DIRECTION('ref_axis',(-1.09314267040015E-16,0.,1.));
#970=DIRECTION('',(1.,0.,1.09314267040015E-16));
#971=DIRECTION('center_axis',(-1.,0.,-1.09314267040015E-16));
#972=DIRECTION('ref_axis',(-1.09314267040015E-16,0.,1.));
#973=DIRECTION('center_axis',(0.,-1.,0.));
#974=DIRECTION('ref_axis',(1.,0.,0.));
#975=DIRECTION('',(0.857167300702112,0.515038074910054,1.04972719113862E-16));
#976=DIRECTION('center_axis',(0.,1.,0.));
#977=DIRECTION('ref_axis',(1.,0.,0.));
#978=DIRECTION('center_axis',(0.,-1.,0.));
#979=DIRECTION('ref_axis',(1.,0.,0.));
#980=DIRECTION('center_axis',(0.,-1.,0.));
#981=DIRECTION('ref_axis',(1.,0.,0.));
#982=DIRECTION('',(0.857167300702112,0.515038074910054,1.04972719113862E-16));
#983=DIRECTION('center_axis',(0.,-1.,0.));
#984=DIRECTION('ref_axis',(1.,0.,0.));
#985=DIRECTION('',(0.,1.,0.));
#986=DIRECTION('center_axis',(0.,-1.,0.));
#987=DIRECTION('ref_axis',(1.,0.,0.));
#988=DIRECTION('',(0.857167300702112,0.515038074910054,1.04972719113862E-16));
#989=DIRECTION('center_axis',(0.,1.,0.));
#990=DIRECTION('ref_axis',(1.,0.,0.));
#991=DIRECTION('center_axis',(0.,-1.,0.));
#992=DIRECTION('ref_axis',(1.,0.,0.));
#993=DIRECTION('center_axis',(0.,-1.,0.));
#994=DIRECTION('ref_axis',(1.,0.,0.));
#995=DIRECTION('',(0.857167300702112,0.515038074910054,1.04972719113862E-16));
#996=DIRECTION('center_axis',(0.,-1.,0.));
#997=DIRECTION('ref_axis',(1.,0.,0.));
#998=DIRECTION('',(0.,1.,0.));
#999=DIRECTION('center_axis',(0.,-1.,0.));
#1000=DIRECTION('ref_axis',(1.,0.,0.));
#1001=DIRECTION('',(0.857167300702112,0.515038074910054,1.04972719113862E-16));
#1002=DIRECTION('center_axis',(0.,1.,0.));
#1003=DIRECTION('ref_axis',(1.,0.,0.));
#1004=DIRECTION('center_axis',(0.,-1.,0.));
#1005=DIRECTION('ref_axis',(1.,0.,0.));
#1006=DIRECTION('center_axis',(0.,-1.,0.));
#1007=DIRECTION('ref_axis',(1.,0.,0.));
#1008=DIRECTION('',(0.857167300702112,0.515038074910054,1.04972719113862E-16));
#1009=DIRECTION('center_axis',(0.,-1.,0.));
#1010=DIRECTION('ref_axis',(1.,0.,0.));
#1011=DIRECTION('',(0.,1.,0.));
#1012=DIRECTION('center_axis',(0.,-1.,0.));
#1013=DIRECTION('ref_axis',(1.,0.,0.));
#1014=DIRECTION('',(0.857167300702112,0.515038074910054,1.04972719113862E-16));
#1015=DIRECTION('center_axis',(0.,1.,0.));
#1016=DIRECTION('ref_axis',(1.,0.,0.));
#1017=DIRECTION('center_axis',(0.,-1.,0.));
#1018=DIRECTION('ref_axis',(1.,0.,0.));
#1019=DIRECTION('center_axis',(0.,-1.,0.));
#1020=DIRECTION('ref_axis',(1.,0.,0.));
#1021=DIRECTION('',(0.857167300702112,0.515038074910054,1.04972719113862E-16));
#1022=DIRECTION('center_axis',(0.,-1.,0.));
#1023=DIRECTION('ref_axis',(1.,0.,0.));
#1024=DIRECTION('',(0.,1.,0.));
#1025=DIRECTION('center_axis',(0.,1.,0.));
#1026=DIRECTION('ref_axis',(1.,0.,0.));
#1027=DIRECTION('center_axis',(0.,1.,0.));
#1028=DIRECTION('ref_axis',(1.,0.,0.));
#1029=DIRECTION('',(0.857167300702112,-0.515038074910054,-1.04972719113862E-16));
#1030=DIRECTION('center_axis',(0.,1.,0.));
#1031=DIRECTION('ref_axis',(1.,0.,0.));
#1032=DIRECTION('center_axis',(0.,-1.,0.));
#1033=DIRECTION('ref_axis',(1.,0.,0.));
#1034=DIRECTION('',(0.,-1.,0.));
#1035=DIRECTION('center_axis',(0.,1.,0.));
#1036=DIRECTION('ref_axis',(1.,0.,0.));
#1037=DIRECTION('center_axis',(0.,1.,0.));
#1038=DIRECTION('ref_axis',(1.,0.,0.));
#1039=DIRECTION('',(0.857167300702112,-0.515038074910054,-1.04972719113862E-16));
#1040=DIRECTION('center_axis',(0.,1.,0.));
#1041=DIRECTION('ref_axis',(1.,0.,0.));
#1042=DIRECTION('center_axis',(0.,-1.,0.));
#1043=DIRECTION('ref_axis',(1.,0.,0.));
#1044=DIRECTION('',(0.,-1.,0.));
#1045=DIRECTION('center_axis',(0.,1.,0.));
#1046=DIRECTION('ref_axis',(1.,0.,0.));
#1047=DIRECTION('center_axis',(0.,1.,0.));
#1048=DIRECTION('ref_axis',(1.,0.,0.));
#1049=DIRECTION('',(0.857167300702112,-0.515038074910054,-1.04972719113862E-16));
#1050=DIRECTION('center_axis',(0.,1.,0.));
#1051=DIRECTION('ref_axis',(1.,0.,0.));
#1052=DIRECTION('center_axis',(0.,-1.,0.));
#1053=DIRECTION('ref_axis',(1.,0.,0.));
#1054=DIRECTION('',(0.,-1.,0.));
#1055=DIRECTION('center_axis',(0.,1.,0.));
#1056=DIRECTION('ref_axis',(1.,0.,0.));
#1057=DIRECTION('center_axis',(0.,1.,0.));
#1058=DIRECTION('ref_axis',(1.,0.,0.));
#1059=DIRECTION('',(0.857167300702112,-0.515038074910054,-1.04972719113862E-16));
#1060=DIRECTION('center_axis',(0.,1.,0.));
#1061=DIRECTION('ref_axis',(1.,0.,0.));
#1062=DIRECTION('center_axis',(0.,-1.,0.));
#1063=DIRECTION('ref_axis',(1.,0.,0.));
#1064=DIRECTION('',(0.,-1.,0.));
#1065=DIRECTION('center_axis',(0.,-1.,0.));
#1066=DIRECTION('ref_axis',(1.,0.,0.));
#1067=DIRECTION('',(0.857167300702112,0.515038074910054,1.04972719113862E-16));
#1068=DIRECTION('center_axis',(0.,-1.,0.));
#1069=DIRECTION('ref_axis',(1.,0.,0.));
#1070=DIRECTION('center_axis',(0.,-1.,0.));
#1071=DIRECTION('ref_axis',(1.,0.,0.));
#1072=DIRECTION('center_axis',(0.,-1.,0.));
#1073=DIRECTION('ref_axis',(1.,0.,0.));
#1074=DIRECTION('',(0.857167300702112,0.515038074910054,1.04972719113862E-16));
#1075=DIRECTION('center_axis',(0.,-1.,0.));
#1076=DIRECTION('ref_axis',(1.,0.,0.));
#1077=DIRECTION('',(0.,1.,0.));
#1078=DIRECTION('center_axis',(0.,1.,0.));
#1079=DIRECTION('ref_axis',(1.,0.,0.));
#1080=DIRECTION('center_axis',(0.,1.,0.));
#1081=DIRECTION('ref_axis',(1.,0.,0.));
#1082=DIRECTION('',(0.857167300702112,-0.515038074910054,-1.04972719113862E-16));
#1083=DIRECTION('center_axis',(0.,1.,0.));
#1084=DIRECTION('ref_axis',(1.,0.,0.));
#1085=DIRECTION('center_axis',(0.,-1.,0.));
#1086=DIRECTION('ref_axis',(1.,0.,0.));
#1087=DIRECTION('',(0.,-1.,0.));
#1088=DIRECTION('center_axis',(1.,0.,-1.40877494583963E-16));
#1089=DIRECTION('ref_axis',(-1.40877494583963E-16,0.,-1.));
#1090=DIRECTION('',(-1.40877494583963E-16,0.,-1.));
#1091=DIRECTION('',(0.,1.,0.));
#1092=DIRECTION('center_axis',(0.,0.,1.));
#1093=DIRECTION('ref_axis',(1.,0.,0.));
#1094=DIRECTION('',(1.,0.,0.));
#1095=DIRECTION('',(0.,1.,0.));
#1096=DIRECTION('center_axis',(1.,0.,-6.93889390390722E-16));
#1097=DIRECTION('ref_axis',(-6.93889390390722E-16,0.,-1.));
#1098=DIRECTION('',(-6.93889390390722E-16,0.,-1.));
#1099=DIRECTION('',(0.,1.,0.));
#1100=DIRECTION('center_axis',(0.,0.,-1.));
#1101=DIRECTION('ref_axis',(-1.,0.,0.));
#1102=DIRECTION('',(-1.,0.,0.));
#1103=DIRECTION('',(0.,1.,0.));
#1104=DIRECTION('center_axis',(1.,0.,-1.83318559277632E-16));
#1105=DIRECTION('ref_axis',(-1.83318559277632E-16,0.,-1.));
#1106=DIRECTION('',(0.,0.,-1.));
#1107=DIRECTION('center_axis',(0.,1.,0.));
#1108=DIRECTION('ref_axis',(0.,0.,1.));
#1109=CARTESIAN_POINT('',(0.,0.,0.));
#1110=CARTESIAN_POINT('Origin',(0.,-3.10862446895044E-14,0.));
#1111=CARTESIAN_POINT('',(10.,-2.88657986402541E-14,-325.));
#1112=CARTESIAN_POINT('',(9.86076131526265E-31,-3.10862446895044E-14,-325.));
#1113=CARTESIAN_POINT('',(1.77635683940025E-14,-3.10862446895044E-14,-325.));
#1114=CARTESIAN_POINT('',(10.,0.,-110.1));
#1115=CARTESIAN_POINT('',(10.,0.,-136.3));
#1116=CARTESIAN_POINT('',(7.,0.,-110.1));
#1117=CARTESIAN_POINT('',(63.5,0.,-110.1));
#1118=CARTESIAN_POINT('',(7.,0.,-106.9));
#1119=CARTESIAN_POINT('',(6.99999999999998,0.,-134.7));
#1120=CARTESIAN_POINT('',(10.,0.,-106.9));
#1121=CARTESIAN_POINT('',(65.,0.,-106.9));
#1122=CARTESIAN_POINT('',(10.,-2.88657986402541E-14,0.));
#1123=CARTESIAN_POINT('',(10.,0.,-86.25));
#1124=CARTESIAN_POINT('',(9.86076131526265E-31,-3.10862446895044E-14,0.));
#1125=CARTESIAN_POINT('',(120.,-7.88860905221012E-30,0.));
#1126=CARTESIAN_POINT('',(0.,-3.10862446895044E-14,-4.40151440717411E-46));
#1127=CARTESIAN_POINT('',(3.30000000000003,-3.33066907387547E-15,-162.5));
#1128=CARTESIAN_POINT('Origin',(5.00000000000004,0.,-162.5));
#1129=CARTESIAN_POINT('',(3.30000000000002,1.38777878078145E-16,-42.5));
#1130=CARTESIAN_POINT('Origin',(5.00000000000002,0.,-42.5));
#1131=CARTESIAN_POINT('',(3.30000000000003,1.38777878078145E-16,-102.5));
#1132=CARTESIAN_POINT('Origin',(5.00000000000003,0.,-102.5));
#1133=CARTESIAN_POINT('',(3.30000000000004,-3.33066907387547E-15,-222.5));
#1134=CARTESIAN_POINT('Origin',(5.00000000000004,0.,-222.5));
#1135=CARTESIAN_POINT('',(3.30000000000004,-3.33066907387547E-15,-282.5));
#1136=CARTESIAN_POINT('Origin',(5.00000000000005,0.,-282.5));
#1137=CARTESIAN_POINT('Origin',(3.5527136788005E-14,0.,-325.));
#1138=CARTESIAN_POINT('',(10.,100.,-325.));
#1139=CARTESIAN_POINT('',(10.,-1.77635683940025E-14,-325.));
#1140=CARTESIAN_POINT('',(3.5527136788005E-14,100.,-325.));
#1141=CARTESIAN_POINT('',(3.5527136788005E-14,0.,-325.));
#1142=CARTESIAN_POINT('',(240.,100.,-325.));
#1143=CARTESIAN_POINT('Origin',(0.,0.,0.));
#1144=CARTESIAN_POINT('',(0.,100.,0.));
#1145=CARTESIAN_POINT('',(0.,0.,0.));
#1146=CARTESIAN_POINT('',(3.5527136788005E-14,100.,-325.));
#1147=CARTESIAN_POINT('',(8.32667268468867E-16,80.,-8.25));
#1148=CARTESIAN_POINT('Origin',(5.55111512312578E-16,80.,-5.));
#1149=CARTESIAN_POINT('',(3.52495810318487E-14,20.,-323.25));
#1150=CARTESIAN_POINT('Origin',(3.49720252756924E-14,20.,-320.));
#1151=CARTESIAN_POINT('',(3.52495810318487E-14,80.,-323.25));
#1152=CARTESIAN_POINT('Origin',(3.49720252756924E-14,80.,-320.));
#1153=CARTESIAN_POINT('',(8.32667268468867E-16,20.,-8.25));
#1154=CARTESIAN_POINT('Origin',(5.55111512312578E-16,20.,-5.));
#1155=CARTESIAN_POINT('Origin',(240.,0.,0.));
#1156=CARTESIAN_POINT('',(10.,100.,0.));
#1157=CARTESIAN_POINT('',(10.,-1.77635683940025E-14,0.));
#1158=CARTESIAN_POINT('',(0.,100.,0.));
#1159=CARTESIAN_POINT('Origin',(3.4,20.,-5.));
#1160=CARTESIAN_POINT('',(3.4,20.,-8.25));
#1161=CARTESIAN_POINT('Origin',(3.4,20.,-5.));
#1162=CARTESIAN_POINT('',(3.4,20.,-6.7));
#1163=CARTESIAN_POINT('Origin',(3.4,20.,-5.));
#1164=CARTESIAN_POINT('Origin',(1.7,20.,-5.));
#1165=CARTESIAN_POINT('',(1.7,20.,-8.25));
#1166=CARTESIAN_POINT('Origin',(5.,20.,-5.));
#1167=CARTESIAN_POINT('',(10.,20.,-6.7));
#1168=CARTESIAN_POINT('',(5.,20.,-6.7));
#1169=CARTESIAN_POINT('Origin',(10.,20.,-5.));
#1170=CARTESIAN_POINT('Origin',(3.40000000000003,80.,-320.));
#1171=CARTESIAN_POINT('',(3.40000000000004,80.,-323.25));
#1172=CARTESIAN_POINT('Origin',(3.40000000000003,80.,-320.));
#1173=CARTESIAN_POINT('',(3.40000000000003,80.,-321.7));
#1174=CARTESIAN_POINT('Origin',(3.40000000000003,80.,-320.));
#1175=CARTESIAN_POINT('Origin',(1.70000000000004,80.,-320.));
#1176=CARTESIAN_POINT('',(1.70000000000004,80.,-323.25));
#1177=CARTESIAN_POINT('Origin',(5.00000000000004,80.,-320.));
#1178=CARTESIAN_POINT('',(10.,80.,-321.7));
#1179=CARTESIAN_POINT('',(5.00000000000004,80.,-321.7));
#1180=CARTESIAN_POINT('Origin',(10.,80.,-320.));
#1181=CARTESIAN_POINT('Origin',(3.40000000000003,20.,-320.));
#1182=CARTESIAN_POINT('',(3.40000000000004,20.,-323.25));
#1183=CARTESIAN_POINT('Origin',(3.40000000000003,20.,-320.));
#1184=CARTESIAN_POINT('',(3.40000000000003,20.,-321.7));
#1185=CARTESIAN_POINT('Origin',(3.40000000000003,20.,-320.));
#1186=CARTESIAN_POINT('Origin',(1.70000000000004,20.,-320.));
#1187=CARTESIAN_POINT('',(1.70000000000004,20.,-323.25));
#1188=CARTESIAN_POINT('Origin',(5.00000000000004,20.,-320.));
#1189=CARTESIAN_POINT('',(10.,20.,-321.7));
#1190=CARTESIAN_POINT('',(5.00000000000004,20.,-321.7));
#1191=CARTESIAN_POINT('Origin',(10.,20.,-320.));
#1192=CARTESIAN_POINT('Origin',(3.4,80.,-5.));
#1193=CARTESIAN_POINT('',(3.4,80.,-8.25));
#1194=CARTESIAN_POINT('Origin',(3.4,80.,-5.));
#1195=CARTESIAN_POINT('',(3.4,80.,-6.7));
#1196=CARTESIAN_POINT('Origin',(3.4,80.,-5.));
#1197=CARTESIAN_POINT('Origin',(1.7,80.,-5.));
#1198=CARTESIAN_POINT('',(1.7,80.,-8.25));
#1199=CARTESIAN_POINT('Origin',(5.,80.,-5.));
#1200=CARTESIAN_POINT('',(10.,80.,-6.7));
#1201=CARTESIAN_POINT('',(5.,80.,-6.7));
#1202=CARTESIAN_POINT('Origin',(10.,80.,-5.));
#1203=CARTESIAN_POINT('Origin',(5.00000000000005,0.510731526173427,-282.5));
#1204=CARTESIAN_POINT('',(3.77050000000005,0.282704921252468,-282.5));
#1205=CARTESIAN_POINT('',(4.15000000000005,0.510731526173427,-282.5));
#1206=CARTESIAN_POINT('Origin',(5.00000000000005,0.282704921252468,-282.5));
#1207=CARTESIAN_POINT('Origin',(5.00000000000005,10.3693790655472,-282.5));
#1208=CARTESIAN_POINT('',(3.77050000000005,10.,-282.5));
#1209=CARTESIAN_POINT('Origin',(5.00000000000005,10.,-282.5));
#1210=CARTESIAN_POINT('',(5.00000000000005,10.7387581310944,-282.5));
#1211=CARTESIAN_POINT('',(4.38525000000005,10.3693790655472,-282.5));
#1212=CARTESIAN_POINT('Origin',(5.00000000000005,0.,-282.5));
#1213=CARTESIAN_POINT('',(3.77050000000005,0.,-282.5));
#1214=CARTESIAN_POINT('Origin',(5.00000000000004,0.510731526173427,-222.5));
#1215=CARTESIAN_POINT('',(3.77050000000004,0.282704921252468,-222.5));
#1216=CARTESIAN_POINT('',(4.15000000000004,0.510731526173427,-222.5));
#1217=CARTESIAN_POINT('Origin',(5.00000000000004,0.282704921252468,-222.5));
#1218=CARTESIAN_POINT('Origin',(5.00000000000004,10.3693790655472,-222.5));
#1219=CARTESIAN_POINT('',(3.77050000000004,10.,-222.5));
#1220=CARTESIAN_POINT('Origin',(5.00000000000004,10.,-222.5));
#1221=CARTESIAN_POINT('',(5.00000000000004,10.7387581310944,-222.5));
#1222=CARTESIAN_POINT('',(4.38525000000004,10.3693790655472,-222.5));
#1223=CARTESIAN_POINT('Origin',(5.00000000000004,0.,-222.5));
#1224=CARTESIAN_POINT('',(3.77050000000004,0.,-222.5));
#1225=CARTESIAN_POINT('Origin',(5.00000000000003,0.510731526173427,-102.5));
#1226=CARTESIAN_POINT('',(3.77050000000003,0.282704921252468,-102.5));
#1227=CARTESIAN_POINT('',(4.15000000000003,0.510731526173427,-102.5));
#1228=CARTESIAN_POINT('Origin',(5.00000000000003,0.282704921252468,-102.5));
#1229=CARTESIAN_POINT('Origin',(5.00000000000003,10.3693790655472,-102.5));
#1230=CARTESIAN_POINT('',(3.77050000000003,10.,-102.5));
#1231=CARTESIAN_POINT('Origin',(5.00000000000003,10.,-102.5));
#1232=CARTESIAN_POINT('',(5.00000000000003,10.7387581310944,-102.5));
#1233=CARTESIAN_POINT('',(4.38525000000003,10.3693790655472,-102.5));
#1234=CARTESIAN_POINT('Origin',(5.00000000000003,0.,-102.5));
#1235=CARTESIAN_POINT('',(3.77050000000003,0.,-102.5));
#1236=CARTESIAN_POINT('Origin',(5.00000000000002,0.510731526173427,-42.5));
#1237=CARTESIAN_POINT('',(3.77050000000002,0.282704921252468,-42.5));
#1238=CARTESIAN_POINT('',(4.15000000000002,0.510731526173427,-42.5));
#1239=CARTESIAN_POINT('Origin',(5.00000000000002,0.282704921252468,-42.5));
#1240=CARTESIAN_POINT('Origin',(5.00000000000002,10.3693790655472,-42.5));
#1241=CARTESIAN_POINT('',(3.77050000000002,10.,-42.5));
#1242=CARTESIAN_POINT('Origin',(5.00000000000002,10.,-42.5));
#1243=CARTESIAN_POINT('',(5.00000000000002,10.7387581310944,-42.5));
#1244=CARTESIAN_POINT('',(4.38525000000002,10.3693790655472,-42.5));
#1245=CARTESIAN_POINT('Origin',(5.00000000000002,0.,-42.5));
#1246=CARTESIAN_POINT('',(3.77050000000002,0.,-42.5));
#1247=CARTESIAN_POINT('Origin',(5.00000000000002,89.6306209344528,-42.5));
#1248=CARTESIAN_POINT('',(3.77050000000001,90.,-42.5));
#1249=CARTESIAN_POINT('Origin',(5.00000000000002,90.,-42.5));
#1250=CARTESIAN_POINT('',(5.00000000000002,89.2612418689056,-42.5));
#1251=CARTESIAN_POINT('',(4.38525000000002,89.6306209344528,-42.5));
#1252=CARTESIAN_POINT('Origin',(5.00000000000002,95.,-42.5));
#1253=CARTESIAN_POINT('',(3.77050000000002,100.,-42.5));
#1254=CARTESIAN_POINT('Origin',(5.00000000000002,100.,-42.5));
#1255=CARTESIAN_POINT('',(3.77050000000002,95.,-42.5));
#1256=CARTESIAN_POINT('Origin',(5.00000000000002,89.6306209344528,-102.5));
#1257=CARTESIAN_POINT('',(3.77050000000002,90.,-102.5));
#1258=CARTESIAN_POINT('Origin',(5.00000000000002,90.,-102.5));
#1259=CARTESIAN_POINT('',(5.00000000000002,89.2612418689056,-102.5));
#1260=CARTESIAN_POINT('',(4.38525000000002,89.6306209344528,-102.5));
#1261=CARTESIAN_POINT('Origin',(5.00000000000002,95.,-102.5));
#1262=CARTESIAN_POINT('',(3.77050000000002,100.,-102.5));
#1263=CARTESIAN_POINT('Origin',(5.00000000000002,100.,-102.5));
#1264=CARTESIAN_POINT('',(3.77050000000002,95.,-102.5));
#1265=CARTESIAN_POINT('Origin',(5.00000000000002,89.6306209344528,-222.5));
#1266=CARTESIAN_POINT('',(3.77050000000002,90.,-222.5));
#1267=CARTESIAN_POINT('Origin',(5.00000000000002,90.,-222.5));
#1268=CARTESIAN_POINT('',(5.00000000000002,89.2612418689056,-222.5));
#1269=CARTESIAN_POINT('',(4.38525000000002,89.6306209344528,-222.5));
#1270=CARTESIAN_POINT('Origin',(5.00000000000002,95.,-222.5));
#1271=CARTESIAN_POINT('',(3.77050000000002,100.,-222.5));
#1272=CARTESIAN_POINT('Origin',(5.00000000000002,100.,-222.5));
#1273=CARTESIAN_POINT('',(3.77050000000002,95.,-222.5));
#1274=CARTESIAN_POINT('Origin',(5.00000000000002,89.6306209344528,-282.5));
#1275=CARTESIAN_POINT('',(3.77050000000002,90.,-282.5));
#1276=CARTESIAN_POINT('Origin',(5.00000000000002,90.,-282.5));
#1277=CARTESIAN_POINT('',(5.00000000000002,89.2612418689056,-282.5));
#1278=CARTESIAN_POINT('',(4.38525000000002,89.6306209344528,-282.5));
#1279=CARTESIAN_POINT('Origin',(5.00000000000002,95.,-282.5));
#1280=CARTESIAN_POINT('',(3.77050000000002,100.,-282.5));
#1281=CARTESIAN_POINT('Origin',(5.00000000000002,100.,-282.5));
#1282=CARTESIAN_POINT('',(3.77050000000002,95.,-282.5));
#1283=CARTESIAN_POINT('Origin',(5.00000000000004,0.510731526173427,-162.5));
#1284=CARTESIAN_POINT('',(3.77050000000004,0.282704921252468,-162.5));
#1285=CARTESIAN_POINT('',(4.15000000000003,0.510731526173427,-162.5));
#1286=CARTESIAN_POINT('Origin',(5.00000000000004,0.282704921252468,-162.5));
#1287=CARTESIAN_POINT('Origin',(5.00000000000004,10.3693790655472,-162.5));
#1288=CARTESIAN_POINT('',(3.77050000000003,10.,-162.5));
#1289=CARTESIAN_POINT('Origin',(5.00000000000004,10.,-162.5));
#1290=CARTESIAN_POINT('',(5.00000000000004,10.7387581310944,-162.5));
#1291=CARTESIAN_POINT('',(4.38525000000004,10.3693790655472,-162.5));
#1292=CARTESIAN_POINT('Origin',(5.00000000000004,0.,-162.5));
#1293=CARTESIAN_POINT('',(3.77050000000004,0.,-162.5));
#1294=CARTESIAN_POINT('Origin',(5.00000000000002,89.6306209344528,-162.5));
#1295=CARTESIAN_POINT('',(3.77050000000002,90.,-162.5));
#1296=CARTESIAN_POINT('Origin',(5.00000000000002,90.,-162.5));
#1297=CARTESIAN_POINT('',(5.00000000000002,89.2612418689056,-162.5));
#1298=CARTESIAN_POINT('',(4.38525000000002,89.6306209344528,-162.5));
#1299=CARTESIAN_POINT('Origin',(5.00000000000002,95.,-162.5));
#1300=CARTESIAN_POINT('',(3.77050000000002,100.,-162.5));
#1301=CARTESIAN_POINT('Origin',(5.00000000000002,100.,-162.5));
#1302=CARTESIAN_POINT('',(3.77050000000002,95.,-162.5));
#1303=CARTESIAN_POINT('Origin',(10.,0.,-110.1));
#1304=CARTESIAN_POINT('',(10.,100.,-110.1));
#1305=CARTESIAN_POINT('',(10.,100.,-110.1));
#1306=CARTESIAN_POINT('',(10.,0.,-110.1));
#1307=CARTESIAN_POINT('Origin',(7.,0.,-110.1));
#1308=CARTESIAN_POINT('',(6.99999999999999,100.,-110.1));
#1309=CARTESIAN_POINT('',(7.,100.,-110.1));
#1310=CARTESIAN_POINT('',(7.,0.,-110.1));
#1311=CARTESIAN_POINT('Origin',(7.,0.,-106.9));
#1312=CARTESIAN_POINT('',(6.99999999999999,100.,-106.9));
#1313=CARTESIAN_POINT('',(7.,100.,-106.9));
#1314=CARTESIAN_POINT('',(7.,0.,-106.9));
#1315=CARTESIAN_POINT('Origin',(10.,0.,-106.9));
#1316=CARTESIAN_POINT('',(10.,100.,-106.9));
#1317=CARTESIAN_POINT('',(10.,100.,-106.9));
#1318=CARTESIAN_POINT('',(10.,0.,-106.9));
#1319=CARTESIAN_POINT('Origin',(10.,0.,-10.));
#1320=CARTESIAN_POINT('',(10.,100.,-81.25));
#1321=CARTESIAN_POINT('Origin',(120.,100.,-162.5));
#1322=UNCERTAINTY_MEASURE_WITH_UNIT(LENGTH_MEASURE(0.01),#1326,
'DISTANCE_ACCURACY_VALUE',
'Maximum model space distance between geometric entities at asserted c
onnectivities');
#1323=UNCERTAINTY_MEASURE_WITH_UNIT(LENGTH_MEASURE(0.01),#1326,
'DISTANCE_ACCURACY_VALUE',
'Maximum model space distance between geometric entities at asserted c
onnectivities');
#1324=(
GEOMETRIC_REPRESENTATION_CONTEXT(3)
GLOBAL_UNCERTAINTY_ASSIGNED_CONTEXT((#1322))
GLOBAL_UNIT_ASSIGNED_CONTEXT((#1326,#1328,#1329))
REPRESENTATION_CONTEXT('','3D')
);
#1325=(
GEOMETRIC_REPRESENTATION_CONTEXT(3)
GLOBAL_UNCERTAINTY_ASSIGNED_CONTEXT((#1323))
GLOBAL_UNIT_ASSIGNED_CONTEXT((#1326,#1328,#1329))
REPRESENTATION_CONTEXT('','3D')
);
#1326=(
LENGTH_UNIT()
NAMED_UNIT(*)
SI_UNIT(.MILLI.,.METRE.)
);
#1327=(
LENGTH_UNIT()
NAMED_UNIT(*)
SI_UNIT(.CENTI.,.METRE.)
);
#1328=(
NAMED_UNIT(*)
PLANE_ANGLE_UNIT()
SI_UNIT($,.RADIAN.)
);
#1329=(
NAMED_UNIT(*)
SI_UNIT($,.STERADIAN.)
SOLID_ANGLE_UNIT()
);
#1330=SHAPE_DEFINITION_REPRESENTATION(#1331,#1332);
#1331=PRODUCT_DEFINITION_SHAPE('',$,#1334);
#1332=SHAPE_REPRESENTATION('',(#785),#1324);
#1333=PRODUCT_DEFINITION_CONTEXT('part definition',#1338,'design');
#1334=PRODUCT_DEFINITION('UV_light_02A',
'20220322_UV_light_02A_chassisBox_sideWall',#1335,#1333);
#1335=PRODUCT_DEFINITION_FORMATION('0',$,#1340);
#1336=PRODUCT_RELATED_PRODUCT_CATEGORY(
'20220322_UV_light_02A_chassisBox_sideWall',
'20220322_UV_light_02A_chassisBox_sideWall',(#1340));
#1337=APPLICATION_PROTOCOL_DEFINITION('international standard',
'automotive_design',2009,#1338);
#1338=APPLICATION_CONTEXT(
'Core Data for Automotive Mechanical Design Process');
#1339=PRODUCT_CONTEXT('part definition',#1338,'mechanical');
#1340=PRODUCT('UV_light_02A',
'20220322_UV_light_02A_chassisBox_sideWall',
'Encapsulation UV light Enclosure/Chassis',(#1339));
#1341=PRESENTATION_STYLE_ASSIGNMENT((#1342));
#1342=SURFACE_STYLE_USAGE(.BOTH.,#1345);
#1343=SURFACE_STYLE_RENDERING_WITH_PROPERTIES($,#1349,(#1344));
#1344=SURFACE_STYLE_TRANSPARENT(0.449999988079071);
#1345=SURFACE_SIDE_STYLE('',(#1346,#1343));
#1346=SURFACE_STYLE_FILL_AREA(#1347);
#1347=FILL_AREA_STYLE('',(#1348));
#1348=FILL_AREA_STYLE_COLOUR('',#1349);
#1349=COLOUR_RGB('',0.450980392156863,0.27843137254902,0.0392156862745098);
ENDSEC;
END-ISO-10303-21;
